"Reporting week","A unsubtyped","A(H1)","A(H3)","B","% Positive","Source","Country"
"2017-40","","","","","","Sentinel","Austria"
"2017-41","","","","","","Sentinel","Austria"
"2017-42","","","","","","Sentinel","Austria"
"2017-43","","","","","0.000000000","Sentinel","Austria"
"2017-44","","","","","","Sentinel","Austria"
"2017-45","","","","","0.000000000","Sentinel","Austria"
"2017-46","","","","","0.000000000","Sentinel","Austria"
"2017-47","","","","","0.000000000","Sentinel","Austria"
"2017-48","","","1","","14.285714280","Sentinel","Austria"
"2017-49","","","","","0.000000000","Sentinel","Austria"
"2017-50","","4","1","5","34.482758620","Sentinel","Austria"
"2017-51","","5","3","9","77.272727270","Sentinel","Austria"
"2017-52","","2","1","6","60.000000000","Sentinel","Austria"
"2018-01","","1","","12","65.000000000","Sentinel","Austria"
"2018-02","","5","2","30","52.857142850","Sentinel","Austria"
"2018-03","3","11","3","44","65.591397840","Sentinel","Austria"
"2018-04","5","15","2","47","72.631578940","Sentinel","Austria"
"2018-05","4","18","2","36","58.823529410","Sentinel","Austria"
"2018-06","4","12","","38","70.129870120","Sentinel","Austria"
"2018-07","","11","4","42","74.025974020","Sentinel","Austria"
"2018-08","3","8","2","19","69.565217390","Sentinel","Austria"
"2018-09","","13","1","25","62.903225800","Sentinel","Austria"
"2018-10","1","8","","13","56.410256410","Sentinel","Austria"
"2018-11","","5","","10","57.692307690","Sentinel","Austria"
"2018-12","","1","","6","36.842105260","Sentinel","Austria"
"2018-13","","3","","3","37.500000000","Sentinel","Austria"
"2018-14","","","","1","33.333333330","Sentinel","Austria"
"2018-15","","2","","1","33.333333330","Sentinel","Austria"
"2018-16","","","","","","Sentinel","Austria"
"2018-17","","","","","","Sentinel","Austria"
"2018-18","","","","","","Sentinel","Austria"
"2018-19","","","","","","Sentinel","Austria"
"2018-20","","","","","","Sentinel","Austria"
