"Reporting week","A unsubtyped","A(H1)","A(H3)","B","% Positive","Source","Country"
"2017-40","","","","","0.000000000","Sentinel","Poland"
"2017-41","","","","","0.000000000","Sentinel","Poland"
"2017-42","","","","","0.000000000","Sentinel","Poland"
"2017-43","","","","","0.000000000","Sentinel","Poland"
"2017-44","","","","","0.000000000","Sentinel","Poland"
"2017-45","","","","","0.000000000","Sentinel","Poland"
"2017-46","","","","","0.000000000","Sentinel","Poland"
"2017-47","","","","","0.000000000","Sentinel","Poland"
"2017-48","","","","2","10.526315780","Sentinel","Poland"
"2017-49","","","","","0.000000000","Sentinel","Poland"
"2017-50","","","3","","16.666666660","Sentinel","Poland"
"2017-51","1","","","2","23.076923070","Sentinel","Poland"
"2017-52","2","","","","14.285714280","Sentinel","Poland"
"2018-01","3","","","1","22.222222220","Sentinel","Poland"
"2018-02","4","","","16","40.816326530","Sentinel","Poland"
"2018-03","17","2","2","25","51.111111110","Sentinel","Poland"
"2018-04","32","3","1","48","53.503184710","Sentinel","Poland"
"2018-05","27","1","","67","53.072625690","Sentinel","Poland"
"2018-06","10","4","","74","53.012048190","Sentinel","Poland"
"2018-07","18","2","","51","55.468750000","Sentinel","Poland"
"2018-08","8","1","","84","47.448979590","Sentinel","Poland"
"2018-09","18","5","1","58","47.398843930","Sentinel","Poland"
"2018-10","8","8","","45","65.591397840","Sentinel","Poland"
"2018-11","3","7","","18","47.457627110","Sentinel","Poland"
"2018-12","1","3","","9","39.393939390","Sentinel","Poland"
"2018-13","1","2","","3","46.153846150","Sentinel","Poland"
"2018-14","","1","","1","22.222222220","Sentinel","Poland"
"2018-15","","1","","","50.000000000","Sentinel","Poland"
"2018-16","","","","","0.000000000","Sentinel","Poland"
"2018-17","","","","","0.000000000","Sentinel","Poland"
"2018-18","","","","","","Sentinel","Poland"
"2018-19","","","","","","Sentinel","Poland"
"2018-20","","","","","","Sentinel","Poland"
